%YAML 1.1
%TAG !u! tag:unity3d.com,2011:
--- !u!29 &1
OcclusionCullingSettings:
  m_ObjectHideFlags: 0
  serializedVersion: 2
  m_OcclusionBakeSettings:
    smallestOccluder: 5
    smallestHole: 0.25
    backfaceThreshold: 100
  m_SceneGUID: 00000000000000000000000000000000
  m_OcclusionCullingData: {fileID: 0}
--- !u!104 &2
RenderSettings:
  m_ObjectHideFlags: 0
  serializedVersion: 8
  m_Fog: 0
  m_FogColor: {r: 0.5, g: 0.5, b: 0.5, a: 1}
  m_FogMode: 3
  m_FogDensity: 0.01
  m_LinearFogStart: 0
  m_LinearFogEnd: 300
  m_AmbientSkyColor: {r: 0.212, g: 0.227, b: 0.259, a: 1}
  m_AmbientEquatorColor: {r: 0.114, g: 0.125, b: 0.133, a: 1}
  m_AmbientGroundColor: {r: 0.047, g: 0.043, b: 0.035, a: 1}
  m_AmbientIntensity: 1
  m_AmbientMode: 3
  m_SubtractiveShadowColor: {r: 0.42, g: 0.478, b: 0.627, a: 1}
  m_SkyboxMaterial: {fileID: 0}
  m_HaloStrength: 0.5
  m_FlareStrength: 1
  m_FlareFadeSpeed: 3
  m_HaloTexture: {fileID: 0}
  m_SpotCookie: {fileID: 10001, guid: 0000000000000000e000000000000000, type: 0}
  m_DefaultReflectionMode: 0
  m_DefaultReflectionResolution: 128
  m_ReflectionBounces: 1
  m_ReflectionIntensity: 1
  m_CustomReflection: {fileID: 0}
  m_Sun: {fileID: 0}
  m_IndirectSpecularColor: {r: 0, g: 0, b: 0, a: 1}
--- !u!157 &3
LightmapSettings:
  m_ObjectHideFlags: 0
  serializedVersion: 11
  m_GIWorkflowMode: 1
  m_GISettings:
    serializedVersion: 2
    m_BounceScale: 1
    m_IndirectOutputScale: 1
    m_AlbedoBoost: 1
    m_TemporalCoherenceThreshold: 1
    m_EnvironmentLightingMode: 0
    m_EnableBakedLightmaps: 0
    m_EnableRealtimeLightmaps: 0
  m_LightmapEditorSettings:
    serializedVersion: 9
    m_Resolution: 2
    m_BakeResolution: 40
    m_TextureWidth: 1024
    m_TextureHeight: 1024
    m_AO: 0
    m_AOMaxDistance: 1
    m_CompAOExponent: 1
    m_CompAOExponentDirect: 0
    m_Padding: 2
    m_LightmapParameters: {fileID: 0}
    m_LightmapsBakeMode: 1
    m_TextureCompression: 1
    m_FinalGather: 0
    m_FinalGatherFiltering: 1
    m_FinalGatherRayCount: 256
    m_ReflectionCompression: 2
    m_MixedBakeMode: 2
    m_BakeBackend: 0
    m_PVRSampling: 1
    m_PVRDirectSampleCount: 32
    m_PVRSampleCount: 500
    m_PVRBounces: 2
    m_PVRFilterTypeDirect: 0
    m_PVRFilterTypeIndirect: 0
    m_PVRFilterTypeAO: 0
    m_PVRFilteringMode: 1
    m_PVRCulling: 1
    m_PVRFilteringGaussRadiusDirect: 1
    m_PVRFilteringGaussRadiusIndirect: 5
    m_PVRFilteringGaussRadiusAO: 2
    m_PVRFilteringAtrousPositionSigmaDirect: 0.5
    m_PVRFilteringAtrousPositionSigmaIndirect: 2
    m_PVRFilteringAtrousPositionSigmaAO: 1
    m_ShowResolutionOverlay: 1
  m_LightingDataAsset: {fileID: 0}
  m_UseShadowmask: 1
--- !u!196 &4
NavMeshSettings:
  serializedVersion: 2
  m_ObjectHideFlags: 0
  m_BuildSettings:
    serializedVersion: 2
    agentTypeID: 0
    agentRadius: 0.5
    agentHeight: 2
    agentSlope: 45
    agentClimb: 0.4
    ledgeDropHeight: 0
    maxJumpAcrossDistance: 0
    minRegionArea: 2
    manualCellSize: 0
    cellSize: 0.16666667
    manualTileSize: 0
    tileSize: 256
    accuratePlacement: 0
    debug:
      m_Flags: 0
  m_NavMeshData: {fileID: 0}
--- !u!1 &391610358
GameObject:
  m_ObjectHideFlags: 0
  m_PrefabParentObject: {fileID: 0}
  m_PrefabInternal: {fileID: 0}
  serializedVersion: 5
  m_Component:
  - component: {fileID: 391610361}
  - component: {fileID: 391610360}
  - component: {fileID: 391610359}
  m_Layer: 0
  m_Name: EventSystem
  m_TagString: Untagged
  m_Icon: {fileID: 0}
  m_NavMeshLayer: 0
  m_StaticEditorFlags: 0
  m_IsActive: 1
--- !u!114 &391610359
MonoBehaviour:
  m_ObjectHideFlags: 0
  m_PrefabParentObject: {fileID: 0}
  m_PrefabInternal: {fileID: 0}
  m_GameObject: {fileID: 391610358}
  m_Enabled: 1
  m_EditorHideFlags: 0
  m_Script: {fileID: 1077351063, guid: f70555f144d8491a825f0804e09c671c, type: 3}
  m_Name: 
  m_EditorClassIdentifier: 
  m_HorizontalAxis: Horizontal
  m_VerticalAxis: Vertical
  m_SubmitButton: Submit
  m_CancelButton: Cancel
  m_InputActionsPerSecond: 10
  m_RepeatDelay: 0.5
  m_ForceModuleActive: 0
--- !u!114 &391610360
MonoBehaviour:
  m_ObjectHideFlags: 0
  m_PrefabParentObject: {fileID: 0}
  m_PrefabInternal: {fileID: 0}
  m_GameObject: {fileID: 391610358}
  m_Enabled: 1
  m_EditorHideFlags: 0
  m_Script: {fileID: -619905303, guid: f70555f144d8491a825f0804e09c671c, type: 3}
  m_Name: 
  m_EditorClassIdentifier: 
  m_FirstSelected: {fileID: 0}
  m_sendNavigationEvents: 1
  m_DragThreshold: 5
--- !u!4 &391610361
Transform:
  m_ObjectHideFlags: 0
  m_PrefabParentObject: {fileID: 0}
  m_PrefabInternal: {fileID: 0}
  m_GameObject: {fileID: 391610358}
  m_LocalRotation: {x: 0, y: 0, z: 0, w: 1}
  m_LocalPosition: {x: 0, y: 0, z: 0}
  m_LocalScale: {x: 1, y: 1, z: 1}
  m_Children: []
  m_Father: {fileID: 0}
  m_RootOrder: 3
  m_LocalEulerAnglesHint: {x: 0, y: 0, z: 0}
--- !u!1 &519420028
GameObject:
  m_ObjectHideFlags: 0
  m_PrefabParentObject: {fileID: 0}
  m_PrefabInternal: {fileID: 0}
  serializedVersion: 5
  m_Component:
  - component: {fileID: 519420032}
  - component: {fileID: 519420031}
  - component: {fileID: 519420029}
  m_Layer: 0
  m_Name: Main Camera
  m_TagString: MainCamera
  m_Icon: {fileID: 0}
  m_NavMeshLayer: 0
  m_StaticEditorFlags: 0
  m_IsActive: 1
--- !u!81 &519420029
AudioListener:
  m_ObjectHideFlags: 0
  m_PrefabParentObject: {fileID: 0}
  m_PrefabInternal: {fileID: 0}
  m_GameObject: {fileID: 519420028}
  m_Enabled: 1
--- !u!20 &519420031
Camera:
  m_ObjectHideFlags: 0
  m_PrefabParentObject: {fileID: 0}
  m_PrefabInternal: {fileID: 0}
  m_GameObject: {fileID: 519420028}
  m_Enabled: 1
  serializedVersion: 2
  m_ClearFlags: 2
  m_BackGroundColor: {r: 0, g: 0, b: 0, a: 0}
  m_NormalizedViewPortRect:
    serializedVersion: 2
    x: 0
    y: 0
    width: 1
    height: 1
  near clip plane: 0.3
  far clip plane: 1000
  field of view: 60
  orthographic: 1
  orthographic size: 5
  m_Depth: -1
  m_CullingMask:
    serializedVersion: 2
    m_Bits: 4294967295
  m_RenderingPath: -1
  m_TargetTexture: {fileID: 0}
  m_TargetDisplay: 0
  m_TargetEye: 0
  m_HDR: 1
  m_AllowMSAA: 0
  m_AllowDynamicResolution: 0
  m_ForceIntoRT: 0
  m_OcclusionCulling: 0
  m_StereoConvergence: 10
  m_StereoSeparation: 0.022
--- !u!4 &519420032
Transform:
  m_ObjectHideFlags: 0
  m_PrefabParentObject: {fileID: 0}
  m_PrefabInternal: {fileID: 0}
  m_GameObject: {fileID: 519420028}
  m_LocalRotation: {x: 0, y: 0, z: 0, w: 1}
  m_LocalPosition: {x: 0, y: 0, z: -10}
  m_LocalScale: {x: 1, y: 1, z: 1}
  m_Children: []
  m_Father: {fileID: 0}
  m_RootOrder: 0
  m_LocalEulerAnglesHint: {x: 0, y: 0, z: 0}
--- !u!1001 &590404862
Prefab:
  m_ObjectHideFlags: 0
  serializedVersion: 2
  m_Modification:
    m_TransformParent: {fileID: 0}
    m_Modifications:
    - target: {fileID: 224336440489558228, guid: a66cf6d1c7a7c1b42aedeeef3cb61952,
        type: 2}
      propertyPath: m_LocalPosition.x
      value: 0
      objectReference: {fileID: 0}
    - target: {fileID: 224336440489558228, guid: a66cf6d1c7a7c1b42aedeeef3cb61952,
        type: 2}
      propertyPath: m_LocalPosition.y
      value: 0
      objectReference: {fileID: 0}
    - target: {fileID: 224336440489558228, guid: a66cf6d1c7a7c1b42aedeeef3cb61952,
        type: 2}
      propertyPath: m_LocalPosition.z
      value: 0
      objectReference: {fileID: 0}
    - target: {fileID: 224336440489558228, guid: a66cf6d1c7a7c1b42aedeeef3cb61952,
        type: 2}
      propertyPath: m_LocalRotation.x
      value: 0
      objectReference: {fileID: 0}
    - target: {fileID: 224336440489558228, guid: a66cf6d1c7a7c1b42aedeeef3cb61952,
        type: 2}
      propertyPath: m_LocalRotation.y
      value: 0
      objectReference: {fileID: 0}
    - target: {fileID: 224336440489558228, guid: a66cf6d1c7a7c1b42aedeeef3cb61952,
        type: 2}
      propertyPath: m_LocalRotation.z
      value: 0
      objectReference: {fileID: 0}
    - target: {fileID: 224336440489558228, guid: a66cf6d1c7a7c1b42aedeeef3cb61952,
        type: 2}
      propertyPath: m_LocalRotation.w
      value: 1
      objectReference: {fileID: 0}
    - target: {fileID: 224336440489558228, guid: a66cf6d1c7a7c1b42aedeeef3cb61952,
        type: 2}
      propertyPath: m_RootOrder
      value: 7
      objectReference: {fileID: 0}
    - target: {fileID: 224336440489558228, guid: a66cf6d1c7a7c1b42aedeeef3cb61952,
        type: 2}
      propertyPath: m_AnchoredPosition.x
      value: 0
      objectReference: {fileID: 0}
    - target: {fileID: 224336440489558228, guid: a66cf6d1c7a7c1b42aedeeef3cb61952,
        type: 2}
      propertyPath: m_AnchoredPosition.y
      value: 0
      objectReference: {fileID: 0}
    - target: {fileID: 224336440489558228, guid: a66cf6d1c7a7c1b42aedeeef3cb61952,
        type: 2}
      propertyPath: m_SizeDelta.x
      value: 0
      objectReference: {fileID: 0}
    - target: {fileID: 224336440489558228, guid: a66cf6d1c7a7c1b42aedeeef3cb61952,
        type: 2}
      propertyPath: m_SizeDelta.y
      value: 0
      objectReference: {fileID: 0}
    - target: {fileID: 224336440489558228, guid: a66cf6d1c7a7c1b42aedeeef3cb61952,
        type: 2}
      propertyPath: m_AnchorMin.x
      value: 0
      objectReference: {fileID: 0}
    - target: {fileID: 224336440489558228, guid: a66cf6d1c7a7c1b42aedeeef3cb61952,
        type: 2}
      propertyPath: m_AnchorMin.y
      value: 0
      objectReference: {fileID: 0}
    - target: {fileID: 224336440489558228, guid: a66cf6d1c7a7c1b42aedeeef3cb61952,
        type: 2}
      propertyPath: m_AnchorMax.x
      value: 0
      objectReference: {fileID: 0}
    - target: {fileID: 224336440489558228, guid: a66cf6d1c7a7c1b42aedeeef3cb61952,
        type: 2}
      propertyPath: m_AnchorMax.y
      value: 0
      objectReference: {fileID: 0}
    - target: {fileID: 224336440489558228, guid: a66cf6d1c7a7c1b42aedeeef3cb61952,
        type: 2}
      propertyPath: m_Pivot.x
      value: 0
      objectReference: {fileID: 0}
    - target: {fileID: 224336440489558228, guid: a66cf6d1c7a7c1b42aedeeef3cb61952,
        type: 2}
      propertyPath: m_Pivot.y
      value: 0
      objectReference: {fileID: 0}
    - target: {fileID: 224167039459817666, guid: a66cf6d1c7a7c1b42aedeeef3cb61952,
        type: 2}
      propertyPath: m_AnchorMax.x
      value: 1
      objectReference: {fileID: 0}
    - target: {fileID: 224167039459817666, guid: a66cf6d1c7a7c1b42aedeeef3cb61952,
        type: 2}
      propertyPath: m_AnchorMax.y
      value: 1
      objectReference: {fileID: 0}
    - target: {fileID: 224019660373773546, guid: a66cf6d1c7a7c1b42aedeeef3cb61952,
        type: 2}
      propertyPath: m_AnchorMin.y
      value: 0.026483255
      objectReference: {fileID: 0}
    - target: {fileID: 224019660373773546, guid: a66cf6d1c7a7c1b42aedeeef3cb61952,
        type: 2}
      propertyPath: m_AnchorMax.x
      value: 1
      objectReference: {fileID: 0}
    - target: {fileID: 224019660373773546, guid: a66cf6d1c7a7c1b42aedeeef3cb61952,
        type: 2}
      propertyPath: m_AnchorMax.y
      value: 0.62666667
      objectReference: {fileID: 0}
    - target: {fileID: 224167039459817666, guid: a66cf6d1c7a7c1b42aedeeef3cb61952,
        type: 2}
      propertyPath: m_AnchoredPosition.x
      value: 0
      objectReference: {fileID: 0}
    - target: {fileID: 224167039459817666, guid: a66cf6d1c7a7c1b42aedeeef3cb61952,
        type: 2}
      propertyPath: m_AnchoredPosition.y
      value: 0
      objectReference: {fileID: 0}
    - target: {fileID: 224019660373773546, guid: a66cf6d1c7a7c1b42aedeeef3cb61952,
        type: 2}
      propertyPath: m_AnchoredPosition.y
      value: 0
      objectReference: {fileID: 0}
    - target: {fileID: 224563299318230808, guid: a66cf6d1c7a7c1b42aedeeef3cb61952,
        type: 2}
      propertyPath: m_AnchoredPosition.x
      value: 0
      objectReference: {fileID: 0}
    - target: {fileID: 224899787517717602, guid: a66cf6d1c7a7c1b42aedeeef3cb61952,
        type: 2}
      propertyPath: m_AnchoredPosition.y
      value: 0
      objectReference: {fileID: 0}
    - target: {fileID: 224684691132292490, guid: a66cf6d1c7a7c1b42aedeeef3cb61952,
        type: 2}
      propertyPath: m_AnchoredPosition.y
      value: -10
      objectReference: {fileID: 0}
    - target: {fileID: 224076447786436350, guid: a66cf6d1c7a7c1b42aedeeef3cb61952,
        type: 2}
      propertyPath: m_AnchoredPosition.y
      value: 0
      objectReference: {fileID: 0}
    - target: {fileID: 224620775349088260, guid: a66cf6d1c7a7c1b42aedeeef3cb61952,
        type: 2}
      propertyPath: m_AnchoredPosition.x
      value: 0
      objectReference: {fileID: 0}
    - target: {fileID: 224620775349088260, guid: a66cf6d1c7a7c1b42aedeeef3cb61952,
        type: 2}
      propertyPath: m_AnchoredPosition.y
      value: 0
      objectReference: {fileID: 0}
    - target: {fileID: 224592564686186002, guid: a66cf6d1c7a7c1b42aedeeef3cb61952,
        type: 2}
      propertyPath: m_AnchoredPosition.y
      value: 0
      objectReference: {fileID: 0}
    - target: {fileID: 224868270787796644, guid: a66cf6d1c7a7c1b42aedeeef3cb61952,
        type: 2}
      propertyPath: m_AnchoredPosition.y
      value: 112
      objectReference: {fileID: 0}
    - target: {fileID: 224684691132292490, guid: a66cf6d1c7a7c1b42aedeeef3cb61952,
        type: 2}
      propertyPath: m_SizeDelta.y
      value: -20
      objectReference: {fileID: 0}
    - target: {fileID: 224592564686186002, guid: a66cf6d1c7a7c1b42aedeeef3cb61952,
        type: 2}
      propertyPath: m_AnchorMax.x
      value: 1
      objectReference: {fileID: 0}
    - target: {fileID: 224592564686186002, guid: a66cf6d1c7a7c1b42aedeeef3cb61952,
        type: 2}
      propertyPath: m_AnchorMax.y
      value: 1
      objectReference: {fileID: 0}
    - target: {fileID: 224592564686186002, guid: a66cf6d1c7a7c1b42aedeeef3cb61952,
        type: 2}
      propertyPath: m_SizeDelta.x
      value: -7
      objectReference: {fileID: 0}
    - target: {fileID: 224592564686186002, guid: a66cf6d1c7a7c1b42aedeeef3cb61952,
        type: 2}
      propertyPath: m_SizeDelta.y
      value: -7
      objectReference: {fileID: 0}
    - target: {fileID: 224899787517717602, guid: a66cf6d1c7a7c1b42aedeeef3cb61952,
        type: 2}
      propertyPath: m_AnchorMax.x
      value: 1
      objectReference: {fileID: 0}
    - target: {fileID: 224899787517717602, guid: a66cf6d1c7a7c1b42aedeeef3cb61952,
        type: 2}
      propertyPath: m_SizeDelta.x
      value: -7
      objectReference: {fileID: 0}
    - target: {fileID: 224076447786436350, guid: a66cf6d1c7a7c1b42aedeeef3cb61952,
        type: 2}
      propertyPath: m_AnchorMax.y
      value: 1
      objectReference: {fileID: 0}
    - target: {fileID: 224076447786436350, guid: a66cf6d1c7a7c1b42aedeeef3cb61952,
        type: 2}
      propertyPath: m_SizeDelta.y
      value: -7
      objectReference: {fileID: 0}
    - target: {fileID: 224563299318230808, guid: a66cf6d1c7a7c1b42aedeeef3cb61952,
        type: 2}
      propertyPath: m_AnchoredPosition.y
      value: 0
      objectReference: {fileID: 0}
    - target: {fileID: 224563299318230808, guid: a66cf6d1c7a7c1b42aedeeef3cb61952,
        type: 2}
      propertyPath: m_SizeDelta.y
      value: 0
      objectReference: {fileID: 0}
    - target: {fileID: 224620775349088260, guid: a66cf6d1c7a7c1b42aedeeef3cb61952,
        type: 2}
      propertyPath: m_SizeDelta.x
      value: 0
      objectReference: {fileID: 0}
    - target: {fileID: 224620775349088260, guid: a66cf6d1c7a7c1b42aedeeef3cb61952,
        type: 2}
      propertyPath: m_SizeDelta.y
      value: 0
      objectReference: {fileID: 0}
    - target: {fileID: 224019660373773546, guid: a66cf6d1c7a7c1b42aedeeef3cb61952,
        type: 2}
      propertyPath: m_SizeDelta.y
      value: 0
      objectReference: {fileID: 0}
    - target: {fileID: 114966202132728302, guid: a66cf6d1c7a7c1b42aedeeef3cb61952,
        type: 2}
      propertyPath: m_Value
      value: 0.07093729
      objectReference: {fileID: 0}
    - target: {fileID: 1286188446372700, guid: a66cf6d1c7a7c1b42aedeeef3cb61952, type: 2}
      propertyPath: m_Name
      value: Tool control (4)
      objectReference: {fileID: 0}
    - target: {fileID: 1286188446372700, guid: a66cf6d1c7a7c1b42aedeeef3cb61952, type: 2}
      propertyPath: m_IsActive
      value: 0
      objectReference: {fileID: 0}
    m_RemovedComponents: []
  m_ParentPrefab: {fileID: 100100000, guid: a66cf6d1c7a7c1b42aedeeef3cb61952, type: 2}
  m_IsPrefabParent: 0
--- !u!1 &657541321
GameObject:
  m_ObjectHideFlags: 0
  m_PrefabParentObject: {fileID: 0}
  m_PrefabInternal: {fileID: 0}
  serializedVersion: 5
  m_Component:
  - component: {fileID: 657541323}
  - component: {fileID: 657541322}
  m_Layer: 0
  m_Name: GameController
  m_TagString: Untagged
  m_Icon: {fileID: 0}
  m_NavMeshLayer: 0
  m_StaticEditorFlags: 0
  m_IsActive: 1
--- !u!114 &657541322
MonoBehaviour:
  m_ObjectHideFlags: 0
  m_PrefabParentObject: {fileID: 0}
  m_PrefabInternal: {fileID: 0}
  m_GameObject: {fileID: 657541321}
  m_Enabled: 1
  m_EditorHideFlags: 0
  m_Script: {fileID: 11500000, guid: bfa1f5941739a654f962d716959eff1f, type: 3}
  m_Name: 
  m_EditorClassIdentifier: 
  TerrainsToUse: {fileID: 11400000, guid: 92d25447d1356ca4c95fcfbbcf124ede, type: 2}
  TerrainToolUI: {fileID: 810535065}
--- !u!4 &657541323
Transform:
  m_ObjectHideFlags: 0
  m_PrefabParentObject: {fileID: 0}
  m_PrefabInternal: {fileID: 0}
  m_GameObject: {fileID: 657541321}
  m_LocalRotation: {x: 0, y: 0, z: 0, w: 1}
  m_LocalPosition: {x: 0, y: 0, z: 0}
  m_LocalScale: {x: 1, y: 1, z: 1}
  m_Children: []
  m_Father: {fileID: 0}
  m_RootOrder: 1
  m_LocalEulerAnglesHint: {x: 0, y: 0, z: 0}
--- !u!1 &810535065 stripped
GameObject:
  m_PrefabParentObject: {fileID: 1286188446372700, guid: a66cf6d1c7a7c1b42aedeeef3cb61952,
    type: 2}
  m_PrefabInternal: {fileID: 2015539747}
--- !u!114 &810535066
MonoBehaviour:
  m_ObjectHideFlags: 0
  m_PrefabParentObject: {fileID: 0}
  m_PrefabInternal: {fileID: 0}
  m_GameObject: {fileID: 810535065}
  m_Enabled: 1
  m_EditorHideFlags: 0
  m_Script: {fileID: 11500000, guid: 677bef2902a3d0d49a092678886e1f21, type: 3}
  m_Name: 
  m_EditorClassIdentifier: 
  view: {fileID: 0}
  TerrainSelector: {fileID: 1186088372479780, guid: 33b64f98b91fcee478454df211aebab8,
    type: 2}
--- !u!1001 &1952519433
Prefab:
  m_ObjectHideFlags: 0
  serializedVersion: 2
  m_Modification:
    m_TransformParent: {fileID: 0}
    m_Modifications:
    - target: {fileID: 224336440489558228, guid: a66cf6d1c7a7c1b42aedeeef3cb61952,
        type: 2}
      propertyPath: m_LocalPosition.x
      value: 0
      objectReference: {fileID: 0}
    - target: {fileID: 224336440489558228, guid: a66cf6d1c7a7c1b42aedeeef3cb61952,
        type: 2}
      propertyPath: m_LocalPosition.y
      value: 0
      objectReference: {fileID: 0}
    - target: {fileID: 224336440489558228, guid: a66cf6d1c7a7c1b42aedeeef3cb61952,
        type: 2}
      propertyPath: m_LocalPosition.z
      value: 0
      objectReference: {fileID: 0}
    - target: {fileID: 224336440489558228, guid: a66cf6d1c7a7c1b42aedeeef3cb61952,
        type: 2}
      propertyPath: m_LocalRotation.x
      value: 0
      objectReference: {fileID: 0}
    - target: {fileID: 224336440489558228, guid: a66cf6d1c7a7c1b42aedeeef3cb61952,
        type: 2}
      propertyPath: m_LocalRotation.y
      value: 0
      objectReference: {fileID: 0}
    - target: {fileID: 224336440489558228, guid: a66cf6d1c7a7c1b42aedeeef3cb61952,
        type: 2}
      propertyPath: m_LocalRotation.z
      value: 0
      objectReference: {fileID: 0}
    - target: {fileID: 224336440489558228, guid: a66cf6d1c7a7c1b42aedeeef3cb61952,
        type: 2}
      propertyPath: m_LocalRotation.w
      value: 1
      objectReference: {fileID: 0}
    - target: {fileID: 224336440489558228, guid: a66cf6d1c7a7c1b42aedeeef3cb61952,
        type: 2}
      propertyPath: m_RootOrder
      value: 5
      objectReference: {fileID: 0}
    - target: {fileID: 224336440489558228, guid: a66cf6d1c7a7c1b42aedeeef3cb61952,
        type: 2}
      propertyPath: m_AnchoredPosition.x
      value: 0
      objectReference: {fileID: 0}
    - target: {fileID: 224336440489558228, guid: a66cf6d1c7a7c1b42aedeeef3cb61952,
        type: 2}
      propertyPath: m_AnchoredPosition.y
      value: 0
      objectReference: {fileID: 0}
    - target: {fileID: 224336440489558228, guid: a66cf6d1c7a7c1b42aedeeef3cb61952,
        type: 2}
      propertyPath: m_SizeDelta.x
      value: 0
      objectReference: {fileID: 0}
    - target: {fileID: 224336440489558228, guid: a66cf6d1c7a7c1b42aedeeef3cb61952,
        type: 2}
      propertyPath: m_SizeDelta.y
      value: 0
      objectReference: {fileID: 0}
    - target: {fileID: 224336440489558228, guid: a66cf6d1c7a7c1b42aedeeef3cb61952,
        type: 2}
      propertyPath: m_AnchorMin.x
      value: 0
      objectReference: {fileID: 0}
    - target: {fileID: 224336440489558228, guid: a66cf6d1c7a7c1b42aedeeef3cb61952,
        type: 2}
      propertyPath: m_AnchorMin.y
      value: 0
      objectReference: {fileID: 0}
    - target: {fileID: 224336440489558228, guid: a66cf6d1c7a7c1b42aedeeef3cb61952,
        type: 2}
      propertyPath: m_AnchorMax.x
      value: 0
      objectReference: {fileID: 0}
    - target: {fileID: 224336440489558228, guid: a66cf6d1c7a7c1b42aedeeef3cb61952,
        type: 2}
      propertyPath: m_AnchorMax.y
      value: 0
      objectReference: {fileID: 0}
    - target: {fileID: 224336440489558228, guid: a66cf6d1c7a7c1b42aedeeef3cb61952,
        type: 2}
      propertyPath: m_Pivot.x
      value: 0
      objectReference: {fileID: 0}
    - target: {fileID: 224336440489558228, guid: a66cf6d1c7a7c1b42aedeeef3cb61952,
        type: 2}
      propertyPath: m_Pivot.y
      value: 0
      objectReference: {fileID: 0}
    - target: {fileID: 224167039459817666, guid: a66cf6d1c7a7c1b42aedeeef3cb61952,
        type: 2}
      propertyPath: m_AnchorMax.x
      value: 1
      objectReference: {fileID: 0}
    - target: {fileID: 224167039459817666, guid: a66cf6d1c7a7c1b42aedeeef3cb61952,
        type: 2}
      propertyPath: m_AnchorMax.y
      value: 1
      objectReference: {fileID: 0}
    - target: {fileID: 224019660373773546, guid: a66cf6d1c7a7c1b42aedeeef3cb61952,
        type: 2}
      propertyPath: m_AnchorMin.y
      value: 0.026483255
      objectReference: {fileID: 0}
    - target: {fileID: 224019660373773546, guid: a66cf6d1c7a7c1b42aedeeef3cb61952,
        type: 2}
      propertyPath: m_AnchorMax.x
      value: 1
      objectReference: {fileID: 0}
    - target: {fileID: 224019660373773546, guid: a66cf6d1c7a7c1b42aedeeef3cb61952,
        type: 2}
      propertyPath: m_AnchorMax.y
      value: 0.62666667
      objectReference: {fileID: 0}
    - target: {fileID: 224167039459817666, guid: a66cf6d1c7a7c1b42aedeeef3cb61952,
        type: 2}
      propertyPath: m_AnchoredPosition.x
      value: 0
      objectReference: {fileID: 0}
    - target: {fileID: 224167039459817666, guid: a66cf6d1c7a7c1b42aedeeef3cb61952,
        type: 2}
      propertyPath: m_AnchoredPosition.y
      value: 0
      objectReference: {fileID: 0}
    - target: {fileID: 224019660373773546, guid: a66cf6d1c7a7c1b42aedeeef3cb61952,
        type: 2}
      propertyPath: m_AnchoredPosition.y
      value: 0
      objectReference: {fileID: 0}
    - target: {fileID: 224563299318230808, guid: a66cf6d1c7a7c1b42aedeeef3cb61952,
        type: 2}
      propertyPath: m_AnchoredPosition.x
      value: 0
      objectReference: {fileID: 0}
    - target: {fileID: 224899787517717602, guid: a66cf6d1c7a7c1b42aedeeef3cb61952,
        type: 2}
      propertyPath: m_AnchoredPosition.y
      value: 0
      objectReference: {fileID: 0}
    - target: {fileID: 224684691132292490, guid: a66cf6d1c7a7c1b42aedeeef3cb61952,
        type: 2}
      propertyPath: m_AnchoredPosition.y
      value: -10
      objectReference: {fileID: 0}
    - target: {fileID: 224076447786436350, guid: a66cf6d1c7a7c1b42aedeeef3cb61952,
        type: 2}
      propertyPath: m_AnchoredPosition.y
      value: 0
      objectReference: {fileID: 0}
    - target: {fileID: 224620775349088260, guid: a66cf6d1c7a7c1b42aedeeef3cb61952,
        type: 2}
      propertyPath: m_AnchoredPosition.x
      value: 0
      objectReference: {fileID: 0}
    - target: {fileID: 224620775349088260, guid: a66cf6d1c7a7c1b42aedeeef3cb61952,
        type: 2}
      propertyPath: m_AnchoredPosition.y
      value: 0
      objectReference: {fileID: 0}
    - target: {fileID: 224592564686186002, guid: a66cf6d1c7a7c1b42aedeeef3cb61952,
        type: 2}
      propertyPath: m_AnchoredPosition.y
      value: 0
      objectReference: {fileID: 0}
    - target: {fileID: 224868270787796644, guid: a66cf6d1c7a7c1b42aedeeef3cb61952,
        type: 2}
      propertyPath: m_AnchoredPosition.y
      value: 112
      objectReference: {fileID: 0}
    - target: {fileID: 224684691132292490, guid: a66cf6d1c7a7c1b42aedeeef3cb61952,
        type: 2}
      propertyPath: m_SizeDelta.y
      value: -20
      objectReference: {fileID: 0}
    - target: {fileID: 224592564686186002, guid: a66cf6d1c7a7c1b42aedeeef3cb61952,
        type: 2}
      propertyPath: m_AnchorMax.x
      value: 1
      objectReference: {fileID: 0}
    - target: {fileID: 224592564686186002, guid: a66cf6d1c7a7c1b42aedeeef3cb61952,
        type: 2}
      propertyPath: m_AnchorMax.y
      value: 1
      objectReference: {fileID: 0}
    - target: {fileID: 224592564686186002, guid: a66cf6d1c7a7c1b42aedeeef3cb61952,
        type: 2}
      propertyPath: m_SizeDelta.x
      value: -7
      objectReference: {fileID: 0}
    - target: {fileID: 224592564686186002, guid: a66cf6d1c7a7c1b42aedeeef3cb61952,
        type: 2}
      propertyPath: m_SizeDelta.y
      value: -7
      objectReference: {fileID: 0}
    - target: {fileID: 224899787517717602, guid: a66cf6d1c7a7c1b42aedeeef3cb61952,
        type: 2}
      propertyPath: m_AnchorMax.x
      value: 1
      objectReference: {fileID: 0}
    - target: {fileID: 224899787517717602, guid: a66cf6d1c7a7c1b42aedeeef3cb61952,
        type: 2}
      propertyPath: m_SizeDelta.x
      value: -7
      objectReference: {fileID: 0}
    - target: {fileID: 224076447786436350, guid: a66cf6d1c7a7c1b42aedeeef3cb61952,
        type: 2}
      propertyPath: m_AnchorMax.y
      value: 1
      objectReference: {fileID: 0}
    - target: {fileID: 224076447786436350, guid: a66cf6d1c7a7c1b42aedeeef3cb61952,
        type: 2}
      propertyPath: m_SizeDelta.y
      value: -7
      objectReference: {fileID: 0}
    - target: {fileID: 224563299318230808, guid: a66cf6d1c7a7c1b42aedeeef3cb61952,
        type: 2}
      propertyPath: m_AnchoredPosition.y
      value: 0
      objectReference: {fileID: 0}
    - target: {fileID: 224563299318230808, guid: a66cf6d1c7a7c1b42aedeeef3cb61952,
        type: 2}
      propertyPath: m_SizeDelta.y
      value: 0
      objectReference: {fileID: 0}
    - target: {fileID: 224620775349088260, guid: a66cf6d1c7a7c1b42aedeeef3cb61952,
        type: 2}
      propertyPath: m_SizeDelta.x
      value: 0
      objectReference: {fileID: 0}
    - target: {fileID: 224620775349088260, guid: a66cf6d1c7a7c1b42aedeeef3cb61952,
        type: 2}
      propertyPath: m_SizeDelta.y
      value: 0
      objectReference: {fileID: 0}
    - target: {fileID: 224019660373773546, guid: a66cf6d1c7a7c1b42aedeeef3cb61952,
        type: 2}
      propertyPath: m_SizeDelta.y
      value: 0
      objectReference: {fileID: 0}
    - target: {fileID: 114966202132728302, guid: a66cf6d1c7a7c1b42aedeeef3cb61952,
        type: 2}
      propertyPath: m_Value
      value: 0.07093729
      objectReference: {fileID: 0}
    - target: {fileID: 1286188446372700, guid: a66cf6d1c7a7c1b42aedeeef3cb61952, type: 2}
      propertyPath: m_Name
      value: Tool control (2)
      objectReference: {fileID: 0}
    - target: {fileID: 1286188446372700, guid: a66cf6d1c7a7c1b42aedeeef3cb61952, type: 2}
      propertyPath: m_IsActive
      value: 0
      objectReference: {fileID: 0}
    m_RemovedComponents: []
  m_ParentPrefab: {fileID: 100100000, guid: a66cf6d1c7a7c1b42aedeeef3cb61952, type: 2}
  m_IsPrefabParent: 0
--- !u!1001 &1956311352
Prefab:
  m_ObjectHideFlags: 0
  serializedVersion: 2
  m_Modification:
    m_TransformParent: {fileID: 0}
    m_Modifications:
    - target: {fileID: 224336440489558228, guid: a66cf6d1c7a7c1b42aedeeef3cb61952,
        type: 2}
      propertyPath: m_LocalPosition.x
      value: 0
      objectReference: {fileID: 0}
    - target: {fileID: 224336440489558228, guid: a66cf6d1c7a7c1b42aedeeef3cb61952,
        type: 2}
      propertyPath: m_LocalPosition.y
      value: 0
      objectReference: {fileID: 0}
    - target: {fileID: 224336440489558228, guid: a66cf6d1c7a7c1b42aedeeef3cb61952,
        type: 2}
      propertyPath: m_LocalPosition.z
      value: 0
      objectReference: {fileID: 0}
    - target: {fileID: 224336440489558228, guid: a66cf6d1c7a7c1b42aedeeef3cb61952,
        type: 2}
      propertyPath: m_LocalRotation.x
      value: 0
      objectReference: {fileID: 0}
    - target: {fileID: 224336440489558228, guid: a66cf6d1c7a7c1b42aedeeef3cb61952,
        type: 2}
      propertyPath: m_LocalRotation.y
      value: 0
      objectReference: {fileID: 0}
    - target: {fileID: 224336440489558228, guid: a66cf6d1c7a7c1b42aedeeef3cb61952,
        type: 2}
      propertyPath: m_LocalRotation.z
      value: 0
      objectReference: {fileID: 0}
    - target: {fileID: 224336440489558228, guid: a66cf6d1c7a7c1b42aedeeef3cb61952,
        type: 2}
      propertyPath: m_LocalRotation.w
      value: 1
      objectReference: {fileID: 0}
    - target: {fileID: 224336440489558228, guid: a66cf6d1c7a7c1b42aedeeef3cb61952,
        type: 2}
      propertyPath: m_RootOrder
      value: 4
      objectReference: {fileID: 0}
    - target: {fileID: 224336440489558228, guid: a66cf6d1c7a7c1b42aedeeef3cb61952,
        type: 2}
      propertyPath: m_AnchoredPosition.x
      value: 0
      objectReference: {fileID: 0}
    - target: {fileID: 224336440489558228, guid: a66cf6d1c7a7c1b42aedeeef3cb61952,
        type: 2}
      propertyPath: m_AnchoredPosition.y
      value: 0
      objectReference: {fileID: 0}
    - target: {fileID: 224336440489558228, guid: a66cf6d1c7a7c1b42aedeeef3cb61952,
        type: 2}
      propertyPath: m_SizeDelta.x
      value: 0
      objectReference: {fileID: 0}
    - target: {fileID: 224336440489558228, guid: a66cf6d1c7a7c1b42aedeeef3cb61952,
        type: 2}
      propertyPath: m_SizeDelta.y
      value: 0
      objectReference: {fileID: 0}
    - target: {fileID: 224336440489558228, guid: a66cf6d1c7a7c1b42aedeeef3cb61952,
        type: 2}
      propertyPath: m_AnchorMin.x
      value: 0
      objectReference: {fileID: 0}
    - target: {fileID: 224336440489558228, guid: a66cf6d1c7a7c1b42aedeeef3cb61952,
        type: 2}
      propertyPath: m_AnchorMin.y
      value: 0
      objectReference: {fileID: 0}
    - target: {fileID: 224336440489558228, guid: a66cf6d1c7a7c1b42aedeeef3cb61952,
        type: 2}
      propertyPath: m_AnchorMax.x
      value: 0
      objectReference: {fileID: 0}
    - target: {fileID: 224336440489558228, guid: a66cf6d1c7a7c1b42aedeeef3cb61952,
        type: 2}
      propertyPath: m_AnchorMax.y
      value: 0
      objectReference: {fileID: 0}
    - target: {fileID: 224336440489558228, guid: a66cf6d1c7a7c1b42aedeeef3cb61952,
        type: 2}
      propertyPath: m_Pivot.x
      value: 0
      objectReference: {fileID: 0}
    - target: {fileID: 224336440489558228, guid: a66cf6d1c7a7c1b42aedeeef3cb61952,
        type: 2}
      propertyPath: m_Pivot.y
      value: 0
      objectReference: {fileID: 0}
    - target: {fileID: 224167039459817666, guid: a66cf6d1c7a7c1b42aedeeef3cb61952,
        type: 2}
      propertyPath: m_AnchorMax.x
      value: 1
      objectReference: {fileID: 0}
    - target: {fileID: 224167039459817666, guid: a66cf6d1c7a7c1b42aedeeef3cb61952,
        type: 2}
      propertyPath: m_AnchorMax.y
      value: 1
      objectReference: {fileID: 0}
    - target: {fileID: 224019660373773546, guid: a66cf6d1c7a7c1b42aedeeef3cb61952,
        type: 2}
      propertyPath: m_AnchorMin.y
      value: 0.026483255
      objectReference: {fileID: 0}
    - target: {fileID: 224019660373773546, guid: a66cf6d1c7a7c1b42aedeeef3cb61952,
        type: 2}
      propertyPath: m_AnchorMax.x
      value: 1
      objectReference: {fileID: 0}
    - target: {fileID: 224019660373773546, guid: a66cf6d1c7a7c1b42aedeeef3cb61952,
        type: 2}
      propertyPath: m_AnchorMax.y
      value: 0.62666667
      objectReference: {fileID: 0}
    - target: {fileID: 224167039459817666, guid: a66cf6d1c7a7c1b42aedeeef3cb61952,
        type: 2}
      propertyPath: m_AnchoredPosition.x
      value: 0
      objectReference: {fileID: 0}
    - target: {fileID: 224167039459817666, guid: a66cf6d1c7a7c1b42aedeeef3cb61952,
        type: 2}
      propertyPath: m_AnchoredPosition.y
      value: 0
      objectReference: {fileID: 0}
    - target: {fileID: 224019660373773546, guid: a66cf6d1c7a7c1b42aedeeef3cb61952,
        type: 2}
      propertyPath: m_AnchoredPosition.y
      value: 0
      objectReference: {fileID: 0}
    - target: {fileID: 224563299318230808, guid: a66cf6d1c7a7c1b42aedeeef3cb61952,
        type: 2}
      propertyPath: m_AnchoredPosition.x
      value: 0
      objectReference: {fileID: 0}
    - target: {fileID: 224899787517717602, guid: a66cf6d1c7a7c1b42aedeeef3cb61952,
        type: 2}
      propertyPath: m_AnchoredPosition.y
      value: 0
      objectReference: {fileID: 0}
    - target: {fileID: 224684691132292490, guid: a66cf6d1c7a7c1b42aedeeef3cb61952,
        type: 2}
      propertyPath: m_AnchoredPosition.y
      value: -10
      objectReference: {fileID: 0}
    - target: {fileID: 224076447786436350, guid: a66cf6d1c7a7c1b42aedeeef3cb61952,
        type: 2}
      propertyPath: m_AnchoredPosition.y
      value: 0
      objectReference: {fileID: 0}
    - target: {fileID: 224620775349088260, guid: a66cf6d1c7a7c1b42aedeeef3cb61952,
        type: 2}
      propertyPath: m_AnchoredPosition.x
      value: 0
      objectReference: {fileID: 0}
    - target: {fileID: 224620775349088260, guid: a66cf6d1c7a7c1b42aedeeef3cb61952,
        type: 2}
      propertyPath: m_AnchoredPosition.y
      value: 0
      objectReference: {fileID: 0}
    - target: {fileID: 224592564686186002, guid: a66cf6d1c7a7c1b42aedeeef3cb61952,
        type: 2}
      propertyPath: m_AnchoredPosition.y
      value: 0
      objectReference: {fileID: 0}
    - target: {fileID: 224868270787796644, guid: a66cf6d1c7a7c1b42aedeeef3cb61952,
        type: 2}
      propertyPath: m_AnchoredPosition.y
      value: 112
      objectReference: {fileID: 0}
    - target: {fileID: 224684691132292490, guid: a66cf6d1c7a7c1b42aedeeef3cb61952,
        type: 2}
      propertyPath: m_SizeDelta.y
      value: -20
      objectReference: {fileID: 0}
    - target: {fileID: 224592564686186002, guid: a66cf6d1c7a7c1b42aedeeef3cb61952,
        type: 2}
      propertyPath: m_AnchorMax.x
      value: 1
      objectReference: {fileID: 0}
    - target: {fileID: 224592564686186002, guid: a66cf6d1c7a7c1b42aedeeef3cb61952,
        type: 2}
      propertyPath: m_AnchorMax.y
      value: 1
      objectReference: {fileID: 0}
    - target: {fileID: 224592564686186002, guid: a66cf6d1c7a7c1b42aedeeef3cb61952,
        type: 2}
      propertyPath: m_SizeDelta.x
      value: -7
      objectReference: {fileID: 0}
    - target: {fileID: 224592564686186002, guid: a66cf6d1c7a7c1b42aedeeef3cb61952,
        type: 2}
      propertyPath: m_SizeDelta.y
      value: -7
      objectReference: {fileID: 0}
    - target: {fileID: 224899787517717602, guid: a66cf6d1c7a7c1b42aedeeef3cb61952,
        type: 2}
      propertyPath: m_AnchorMax.x
      value: 1
      objectReference: {fileID: 0}
    - target: {fileID: 224899787517717602, guid: a66cf6d1c7a7c1b42aedeeef3cb61952,
        type: 2}
      propertyPath: m_SizeDelta.x
      value: -7
      objectReference: {fileID: 0}
    - target: {fileID: 224076447786436350, guid: a66cf6d1c7a7c1b42aedeeef3cb61952,
        type: 2}
      propertyPath: m_AnchorMax.y
      value: 1
      objectReference: {fileID: 0}
    - target: {fileID: 224076447786436350, guid: a66cf6d1c7a7c1b42aedeeef3cb61952,
        type: 2}
      propertyPath: m_SizeDelta.y
      value: -7
      objectReference: {fileID: 0}
    - target: {fileID: 224563299318230808, guid: a66cf6d1c7a7c1b42aedeeef3cb61952,
        type: 2}
      propertyPath: m_AnchoredPosition.y
      value: 0
      objectReference: {fileID: 0}
    - target: {fileID: 224563299318230808, guid: a66cf6d1c7a7c1b42aedeeef3cb61952,
        type: 2}
      propertyPath: m_SizeDelta.y
      value: 0
      objectReference: {fileID: 0}
    - target: {fileID: 224620775349088260, guid: a66cf6d1c7a7c1b42aedeeef3cb61952,
        type: 2}
      propertyPath: m_SizeDelta.x
      value: 0
      objectReference: {fileID: 0}
    - target: {fileID: 224620775349088260, guid: a66cf6d1c7a7c1b42aedeeef3cb61952,
        type: 2}
      propertyPath: m_SizeDelta.y
      value: 0
      objectReference: {fileID: 0}
    - target: {fileID: 224019660373773546, guid: a66cf6d1c7a7c1b42aedeeef3cb61952,
        type: 2}
      propertyPath: m_SizeDelta.y
      value: 0
      objectReference: {fileID: 0}
    - target: {fileID: 1286188446372700, guid: a66cf6d1c7a7c1b42aedeeef3cb61952, type: 2}
      propertyPath: m_Name
      value: Tool control (1)
      objectReference: {fileID: 0}
    - target: {fileID: 114966202132728302, guid: a66cf6d1c7a7c1b42aedeeef3cb61952,
        type: 2}
      propertyPath: m_Value
      value: 0.07093729
      objectReference: {fileID: 0}
    - target: {fileID: 1286188446372700, guid: a66cf6d1c7a7c1b42aedeeef3cb61952, type: 2}
      propertyPath: m_IsActive
      value: 0
      objectReference: {fileID: 0}
    m_RemovedComponents: []
  m_ParentPrefab: {fileID: 100100000, guid: a66cf6d1c7a7c1b42aedeeef3cb61952, type: 2}
  m_IsPrefabParent: 0
--- !u!1001 &2015539747
Prefab:
  m_ObjectHideFlags: 0
  serializedVersion: 2
  m_Modification:
    m_TransformParent: {fileID: 0}
    m_Modifications:
    - target: {fileID: 224336440489558228, guid: a66cf6d1c7a7c1b42aedeeef3cb61952,
        type: 2}
      propertyPath: m_LocalPosition.x
      value: 0
      objectReference: {fileID: 0}
    - target: {fileID: 224336440489558228, guid: a66cf6d1c7a7c1b42aedeeef3cb61952,
        type: 2}
      propertyPath: m_LocalPosition.y
      value: 0
      objectReference: {fileID: 0}
    - target: {fileID: 224336440489558228, guid: a66cf6d1c7a7c1b42aedeeef3cb61952,
        type: 2}
      propertyPath: m_LocalPosition.z
      value: 0
      objectReference: {fileID: 0}
    - target: {fileID: 224336440489558228, guid: a66cf6d1c7a7c1b42aedeeef3cb61952,
        type: 2}
      propertyPath: m_LocalRotation.x
      value: 0
      objectReference: {fileID: 0}
    - target: {fileID: 224336440489558228, guid: a66cf6d1c7a7c1b42aedeeef3cb61952,
        type: 2}
      propertyPath: m_LocalRotation.y
      value: 0
      objectReference: {fileID: 0}
    - target: {fileID: 224336440489558228, guid: a66cf6d1c7a7c1b42aedeeef3cb61952,
        type: 2}
      propertyPath: m_LocalRotation.z
      value: 0
      objectReference: {fileID: 0}
    - target: {fileID: 224336440489558228, guid: a66cf6d1c7a7c1b42aedeeef3cb61952,
        type: 2}
      propertyPath: m_LocalRotation.w
      value: 1
      objectReference: {fileID: 0}
    - target: {fileID: 224336440489558228, guid: a66cf6d1c7a7c1b42aedeeef3cb61952,
        type: 2}
      propertyPath: m_RootOrder
      value: 2
      objectReference: {fileID: 0}
    - target: {fileID: 224336440489558228, guid: a66cf6d1c7a7c1b42aedeeef3cb61952,
        type: 2}
      propertyPath: m_AnchoredPosition.x
      value: 0
      objectReference: {fileID: 0}
    - target: {fileID: 224336440489558228, guid: a66cf6d1c7a7c1b42aedeeef3cb61952,
        type: 2}
      propertyPath: m_AnchoredPosition.y
      value: 0
      objectReference: {fileID: 0}
    - target: {fileID: 224336440489558228, guid: a66cf6d1c7a7c1b42aedeeef3cb61952,
        type: 2}
      propertyPath: m_SizeDelta.x
      value: 0
      objectReference: {fileID: 0}
    - target: {fileID: 224336440489558228, guid: a66cf6d1c7a7c1b42aedeeef3cb61952,
        type: 2}
      propertyPath: m_SizeDelta.y
      value: 0
      objectReference: {fileID: 0}
    - target: {fileID: 224336440489558228, guid: a66cf6d1c7a7c1b42aedeeef3cb61952,
        type: 2}
      propertyPath: m_AnchorMin.x
      value: 0
      objectReference: {fileID: 0}
    - target: {fileID: 224336440489558228, guid: a66cf6d1c7a7c1b42aedeeef3cb61952,
        type: 2}
      propertyPath: m_AnchorMin.y
      value: 0
      objectReference: {fileID: 0}
    - target: {fileID: 224336440489558228, guid: a66cf6d1c7a7c1b42aedeeef3cb61952,
        type: 2}
      propertyPath: m_AnchorMax.x
      value: 0
      objectReference: {fileID: 0}
    - target: {fileID: 224336440489558228, guid: a66cf6d1c7a7c1b42aedeeef3cb61952,
        type: 2}
      propertyPath: m_AnchorMax.y
      value: 0
      objectReference: {fileID: 0}
    - target: {fileID: 224336440489558228, guid: a66cf6d1c7a7c1b42aedeeef3cb61952,
        type: 2}
      propertyPath: m_Pivot.x
      value: 0
      objectReference: {fileID: 0}
    - target: {fileID: 224336440489558228, guid: a66cf6d1c7a7c1b42aedeeef3cb61952,
        type: 2}
      propertyPath: m_Pivot.y
      value: 0
      objectReference: {fileID: 0}
    - target: {fileID: 224167039459817666, guid: a66cf6d1c7a7c1b42aedeeef3cb61952,
        type: 2}
      propertyPath: m_AnchorMax.x
      value: 0
      objectReference: {fileID: 0}
    - target: {fileID: 224167039459817666, guid: a66cf6d1c7a7c1b42aedeeef3cb61952,
        type: 2}
      propertyPath: m_AnchorMax.y
      value: 0
      objectReference: {fileID: 0}
    - target: {fileID: 224019660373773546, guid: a66cf6d1c7a7c1b42aedeeef3cb61952,
        type: 2}
      propertyPath: m_AnchorMin.y
      value: 0
      objectReference: {fileID: 0}
    - target: {fileID: 224019660373773546, guid: a66cf6d1c7a7c1b42aedeeef3cb61952,
        type: 2}
      propertyPath: m_AnchorMax.x
      value: 0
      objectReference: {fileID: 0}
    - target: {fileID: 224019660373773546, guid: a66cf6d1c7a7c1b42aedeeef3cb61952,
        type: 2}
      propertyPath: m_AnchorMax.y
      value: 0
      objectReference: {fileID: 0}
    - target: {fileID: 224167039459817666, guid: a66cf6d1c7a7c1b42aedeeef3cb61952,
        type: 2}
      propertyPath: m_AnchoredPosition.x
      value: 0
      objectReference: {fileID: 0}
    - target: {fileID: 224167039459817666, guid: a66cf6d1c7a7c1b42aedeeef3cb61952,
        type: 2}
      propertyPath: m_AnchoredPosition.y
      value: 0
      objectReference: {fileID: 0}
    - target: {fileID: 224019660373773546, guid: a66cf6d1c7a7c1b42aedeeef3cb61952,
        type: 2}
      propertyPath: m_AnchoredPosition.y
      value: 0
      objectReference: {fileID: 0}
    - target: {fileID: 224563299318230808, guid: a66cf6d1c7a7c1b42aedeeef3cb61952,
        type: 2}
      propertyPath: m_AnchoredPosition.x
      value: 0
      objectReference: {fileID: 0}
    - target: {fileID: 224899787517717602, guid: a66cf6d1c7a7c1b42aedeeef3cb61952,
        type: 2}
      propertyPath: m_AnchoredPosition.y
      value: 0
      objectReference: {fileID: 0}
    - target: {fileID: 224684691132292490, guid: a66cf6d1c7a7c1b42aedeeef3cb61952,
        type: 2}
      propertyPath: m_AnchoredPosition.y
      value: -10
      objectReference: {fileID: 0}
    - target: {fileID: 224076447786436350, guid: a66cf6d1c7a7c1b42aedeeef3cb61952,
        type: 2}
      propertyPath: m_AnchoredPosition.y
      value: 0
      objectReference: {fileID: 0}
    - target: {fileID: 224620775349088260, guid: a66cf6d1c7a7c1b42aedeeef3cb61952,
        type: 2}
      propertyPath: m_AnchoredPosition.x
      value: 0
      objectReference: {fileID: 0}
    - target: {fileID: 224620775349088260, guid: a66cf6d1c7a7c1b42aedeeef3cb61952,
        type: 2}
      propertyPath: m_AnchoredPosition.y
      value: 0
      objectReference: {fileID: 0}
    - target: {fileID: 224592564686186002, guid: a66cf6d1c7a7c1b42aedeeef3cb61952,
        type: 2}
      propertyPath: m_AnchoredPosition.y
      value: 0
      objectReference: {fileID: 0}
    - target: {fileID: 224868270787796644, guid: a66cf6d1c7a7c1b42aedeeef3cb61952,
        type: 2}
      propertyPath: m_AnchoredPosition.y
      value: 75
      objectReference: {fileID: 0}
    - target: {fileID: 224684691132292490, guid: a66cf6d1c7a7c1b42aedeeef3cb61952,
        type: 2}
      propertyPath: m_SizeDelta.y
      value: -20
      objectReference: {fileID: 0}
    - target: {fileID: 224592564686186002, guid: a66cf6d1c7a7c1b42aedeeef3cb61952,
        type: 2}
      propertyPath: m_AnchorMax.x
      value: 0
      objectReference: {fileID: 0}
    - target: {fileID: 224592564686186002, guid: a66cf6d1c7a7c1b42aedeeef3cb61952,
        type: 2}
      propertyPath: m_AnchorMax.y
      value: 0
      objectReference: {fileID: 0}
    - target: {fileID: 224592564686186002, guid: a66cf6d1c7a7c1b42aedeeef3cb61952,
        type: 2}
      propertyPath: m_SizeDelta.x
      value: 0
      objectReference: {fileID: 0}
    - target: {fileID: 224592564686186002, guid: a66cf6d1c7a7c1b42aedeeef3cb61952,
        type: 2}
      propertyPath: m_SizeDelta.y
      value: 0
      objectReference: {fileID: 0}
    - target: {fileID: 224899787517717602, guid: a66cf6d1c7a7c1b42aedeeef3cb61952,
        type: 2}
      propertyPath: m_AnchorMax.x
      value: 0
      objectReference: {fileID: 0}
    - target: {fileID: 224899787517717602, guid: a66cf6d1c7a7c1b42aedeeef3cb61952,
        type: 2}
      propertyPath: m_SizeDelta.x
      value: 0
      objectReference: {fileID: 0}
    - target: {fileID: 224076447786436350, guid: a66cf6d1c7a7c1b42aedeeef3cb61952,
        type: 2}
      propertyPath: m_AnchorMax.y
      value: 0
      objectReference: {fileID: 0}
    - target: {fileID: 224076447786436350, guid: a66cf6d1c7a7c1b42aedeeef3cb61952,
        type: 2}
      propertyPath: m_SizeDelta.y
      value: 0
      objectReference: {fileID: 0}
    - target: {fileID: 224563299318230808, guid: a66cf6d1c7a7c1b42aedeeef3cb61952,
        type: 2}
      propertyPath: m_AnchoredPosition.y
      value: 0
      objectReference: {fileID: 0}
    - target: {fileID: 224563299318230808, guid: a66cf6d1c7a7c1b42aedeeef3cb61952,
        type: 2}
      propertyPath: m_SizeDelta.y
      value: 0
      objectReference: {fileID: 0}
    - target: {fileID: 224620775349088260, guid: a66cf6d1c7a7c1b42aedeeef3cb61952,
        type: 2}
      propertyPath: m_SizeDelta.x
      value: 0
      objectReference: {fileID: 0}
    - target: {fileID: 224620775349088260, guid: a66cf6d1c7a7c1b42aedeeef3cb61952,
        type: 2}
      propertyPath: m_SizeDelta.y
      value: 0
      objectReference: {fileID: 0}
    - target: {fileID: 224019660373773546, guid: a66cf6d1c7a7c1b42aedeeef3cb61952,
        type: 2}
      propertyPath: m_SizeDelta.y
      value: 0
      objectReference: {fileID: 0}
    - target: {fileID: 1286188446372700, guid: a66cf6d1c7a7c1b42aedeeef3cb61952, type: 2}
      propertyPath: m_Name
      value: Terrain Control
      objectReference: {fileID: 0}
    - target: {fileID: 114403273680447512, guid: a66cf6d1c7a7c1b42aedeeef3cb61952,
        type: 2}
      propertyPath: m_Text
      value: Terrain Tool
      objectReference: {fileID: 0}
    m_RemovedComponents: []
  m_ParentPrefab: {fileID: 100100000, guid: a66cf6d1c7a7c1b42aedeeef3cb61952, type: 2}
  m_IsPrefabParent: 0
--- !u!1001 &2095123604
Prefab:
  m_ObjectHideFlags: 0
  serializedVersion: 2
  m_Modification:
    m_TransformParent: {fileID: 0}
    m_Modifications:
    - target: {fileID: 224336440489558228, guid: a66cf6d1c7a7c1b42aedeeef3cb61952,
        type: 2}
      propertyPath: m_LocalPosition.x
      value: 0
      objectReference: {fileID: 0}
    - target: {fileID: 224336440489558228, guid: a66cf6d1c7a7c1b42aedeeef3cb61952,
        type: 2}
      propertyPath: m_LocalPosition.y
      value: 0
      objectReference: {fileID: 0}
    - target: {fileID: 224336440489558228, guid: a66cf6d1c7a7c1b42aedeeef3cb61952,
        type: 2}
      propertyPath: m_LocalPosition.z
      value: 0
      objectReference: {fileID: 0}
    - target: {fileID: 224336440489558228, guid: a66cf6d1c7a7c1b42aedeeef3cb61952,
        type: 2}
      propertyPath: m_LocalRotation.x
      value: 0
      objectReference: {fileID: 0}
    - target: {fileID: 224336440489558228, guid: a66cf6d1c7a7c1b42aedeeef3cb61952,
        type: 2}
      propertyPath: m_LocalRotation.y
      value: 0
      objectReference: {fileID: 0}
    - target: {fileID: 224336440489558228, guid: a66cf6d1c7a7c1b42aedeeef3cb61952,
        type: 2}
      propertyPath: m_LocalRotation.z
      value: 0
      objectReference: {fileID: 0}
    - target: {fileID: 224336440489558228, guid: a66cf6d1c7a7c1b42aedeeef3cb61952,
        type: 2}
      propertyPath: m_LocalRotation.w
      value: 1
      objectReference: {fileID: 0}
    - target: {fileID: 224336440489558228, guid: a66cf6d1c7a7c1b42aedeeef3cb61952,
        type: 2}
      propertyPath: m_RootOrder
      value: 6
      objectReference: {fileID: 0}
    - target: {fileID: 224336440489558228, guid: a66cf6d1c7a7c1b42aedeeef3cb61952,
        type: 2}
      propertyPath: m_AnchoredPosition.x
      value: 0
      objectReference: {fileID: 0}
    - target: {fileID: 224336440489558228, guid: a66cf6d1c7a7c1b42aedeeef3cb61952,
        type: 2}
      propertyPath: m_AnchoredPosition.y
      value: 0
      objectReference: {fileID: 0}
    - target: {fileID: 224336440489558228, guid: a66cf6d1c7a7c1b42aedeeef3cb61952,
        type: 2}
      propertyPath: m_SizeDelta.x
      value: 0
      objectReference: {fileID: 0}
    - target: {fileID: 224336440489558228, guid: a66cf6d1c7a7c1b42aedeeef3cb61952,
        type: 2}
      propertyPath: m_SizeDelta.y
      value: 0
      objectReference: {fileID: 0}
    - target: {fileID: 224336440489558228, guid: a66cf6d1c7a7c1b42aedeeef3cb61952,
        type: 2}
      propertyPath: m_AnchorMin.x
      value: 0
      objectReference: {fileID: 0}
    - target: {fileID: 224336440489558228, guid: a66cf6d1c7a7c1b42aedeeef3cb61952,
        type: 2}
      propertyPath: m_AnchorMin.y
      value: 0
      objectReference: {fileID: 0}
    - target: {fileID: 224336440489558228, guid: a66cf6d1c7a7c1b42aedeeef3cb61952,
        type: 2}
      propertyPath: m_AnchorMax.x
      value: 0
      objectReference: {fileID: 0}
    - target: {fileID: 224336440489558228, guid: a66cf6d1c7a7c1b42aedeeef3cb61952,
        type: 2}
      propertyPath: m_AnchorMax.y
      value: 0
      objectReference: {fileID: 0}
    - target: {fileID: 224336440489558228, guid: a66cf6d1c7a7c1b42aedeeef3cb61952,
        type: 2}
      propertyPath: m_Pivot.x
      value: 0
      objectReference: {fileID: 0}
    - target: {fileID: 224336440489558228, guid: a66cf6d1c7a7c1b42aedeeef3cb61952,
        type: 2}
      propertyPath: m_Pivot.y
      value: 0
      objectReference: {fileID: 0}
    - target: {fileID: 224167039459817666, guid: a66cf6d1c7a7c1b42aedeeef3cb61952,
        type: 2}
      propertyPath: m_AnchorMax.x
      value: 1
      objectReference: {fileID: 0}
    - target: {fileID: 224167039459817666, guid: a66cf6d1c7a7c1b42aedeeef3cb61952,
        type: 2}
      propertyPath: m_AnchorMax.y
      value: 1
      objectReference: {fileID: 0}
    - target: {fileID: 224019660373773546, guid: a66cf6d1c7a7c1b42aedeeef3cb61952,
        type: 2}
      propertyPath: m_AnchorMin.y
      value: 0.026483255
      objectReference: {fileID: 0}
    - target: {fileID: 224019660373773546, guid: a66cf6d1c7a7c1b42aedeeef3cb61952,
        type: 2}
      propertyPath: m_AnchorMax.x
      value: 1
      objectReference: {fileID: 0}
    - target: {fileID: 224019660373773546, guid: a66cf6d1c7a7c1b42aedeeef3cb61952,
        type: 2}
      propertyPath: m_AnchorMax.y
      value: 0.62666667
      objectReference: {fileID: 0}
    - target: {fileID: 224167039459817666, guid: a66cf6d1c7a7c1b42aedeeef3cb61952,
        type: 2}
      propertyPath: m_AnchoredPosition.x
      value: 0
      objectReference: {fileID: 0}
    - target: {fileID: 224167039459817666, guid: a66cf6d1c7a7c1b42aedeeef3cb61952,
        type: 2}
      propertyPath: m_AnchoredPosition.y
      value: 0
      objectReference: {fileID: 0}
    - target: {fileID: 224019660373773546, guid: a66cf6d1c7a7c1b42aedeeef3cb61952,
        type: 2}
      propertyPath: m_AnchoredPosition.y
      value: 0
      objectReference: {fileID: 0}
    - target: {fileID: 224563299318230808, guid: a66cf6d1c7a7c1b42aedeeef3cb61952,
        type: 2}
      propertyPath: m_AnchoredPosition.x
      value: 0
      objectReference: {fileID: 0}
    - target: {fileID: 224899787517717602, guid: a66cf6d1c7a7c1b42aedeeef3cb61952,
        type: 2}
      propertyPath: m_AnchoredPosition.y
      value: 0
      objectReference: {fileID: 0}
    - target: {fileID: 224684691132292490, guid: a66cf6d1c7a7c1b42aedeeef3cb61952,
        type: 2}
      propertyPath: m_AnchoredPosition.y
      value: -10
      objectReference: {fileID: 0}
    - target: {fileID: 224076447786436350, guid: a66cf6d1c7a7c1b42aedeeef3cb61952,
        type: 2}
      propertyPath: m_AnchoredPosition.y
      value: 0
      objectReference: {fileID: 0}
    - target: {fileID: 224620775349088260, guid: a66cf6d1c7a7c1b42aedeeef3cb61952,
        type: 2}
      propertyPath: m_AnchoredPosition.x
      value: 0
      objectReference: {fileID: 0}
    - target: {fileID: 224620775349088260, guid: a66cf6d1c7a7c1b42aedeeef3cb61952,
        type: 2}
      propertyPath: m_AnchoredPosition.y
      value: 0
      objectReference: {fileID: 0}
    - target: {fileID: 224592564686186002, guid: a66cf6d1c7a7c1b42aedeeef3cb61952,
        type: 2}
      propertyPath: m_AnchoredPosition.y
      value: 0
      objectReference: {fileID: 0}
    - target: {fileID: 224868270787796644, guid: a66cf6d1c7a7c1b42aedeeef3cb61952,
        type: 2}
      propertyPath: m_AnchoredPosition.y
      value: 112
      objectReference: {fileID: 0}
    - target: {fileID: 224684691132292490, guid: a66cf6d1c7a7c1b42aedeeef3cb61952,
        type: 2}
      propertyPath: m_SizeDelta.y
      value: -20
      objectReference: {fileID: 0}
    - target: {fileID: 224592564686186002, guid: a66cf6d1c7a7c1b42aedeeef3cb61952,
        type: 2}
      propertyPath: m_AnchorMax.x
      value: 1
      objectReference: {fileID: 0}
    - target: {fileID: 224592564686186002, guid: a66cf6d1c7a7c1b42aedeeef3cb61952,
        type: 2}
      propertyPath: m_AnchorMax.y
      value: 1
      objectReference: {fileID: 0}
    - target: {fileID: 224592564686186002, guid: a66cf6d1c7a7c1b42aedeeef3cb61952,
        type: 2}
      propertyPath: m_SizeDelta.x
      value: -7
      objectReference: {fileID: 0}
    - target: {fileID: 224592564686186002, guid: a66cf6d1c7a7c1b42aedeeef3cb61952,
        type: 2}
      propertyPath: m_SizeDelta.y
      value: -7
      objectReference: {fileID: 0}
    - target: {fileID: 224899787517717602, guid: a66cf6d1c7a7c1b42aedeeef3cb61952,
        type: 2}
      propertyPath: m_AnchorMax.x
      value: 1
      objectReference: {fileID: 0}
    - target: {fileID: 224899787517717602, guid: a66cf6d1c7a7c1b42aedeeef3cb61952,
        type: 2}
      propertyPath: m_SizeDelta.x
      value: -7
      objectReference: {fileID: 0}
    - target: {fileID: 224076447786436350, guid: a66cf6d1c7a7c1b42aedeeef3cb61952,
        type: 2}
      propertyPath: m_AnchorMax.y
      value: 1
      objectReference: {fileID: 0}
    - target: {fileID: 224076447786436350, guid: a66cf6d1c7a7c1b42aedeeef3cb61952,
        type: 2}
      propertyPath: m_SizeDelta.y
      value: -7
      objectReference: {fileID: 0}
    - target: {fileID: 224563299318230808, guid: a66cf6d1c7a7c1b42aedeeef3cb61952,
        type: 2}
      propertyPath: m_AnchoredPosition.y
      value: 0
      objectReference: {fileID: 0}
    - target: {fileID: 224563299318230808, guid: a66cf6d1c7a7c1b42aedeeef3cb61952,
        type: 2}
      propertyPath: m_SizeDelta.y
      value: 0
      objectReference: {fileID: 0}
    - target: {fileID: 224620775349088260, guid: a66cf6d1c7a7c1b42aedeeef3cb61952,
        type: 2}
      propertyPath: m_SizeDelta.x
      value: 0
      objectReference: {fileID: 0}
    - target: {fileID: 224620775349088260, guid: a66cf6d1c7a7c1b42aedeeef3cb61952,
        type: 2}
      propertyPath: m_SizeDelta.y
      value: 0
      objectReference: {fileID: 0}
    - target: {fileID: 224019660373773546, guid: a66cf6d1c7a7c1b42aedeeef3cb61952,
        type: 2}
      propertyPath: m_SizeDelta.y
      value: 0
      objectReference: {fileID: 0}
    - target: {fileID: 1286188446372700, guid: a66cf6d1c7a7c1b42aedeeef3cb61952, type: 2}
      propertyPath: m_Name
      value: Tool control (3)
      objectReference: {fileID: 0}
    - target: {fileID: 114966202132728302, guid: a66cf6d1c7a7c1b42aedeeef3cb61952,
        type: 2}
      propertyPath: m_Value
      value: 0.07093729
      objectReference: {fileID: 0}
    - target: {fileID: 1286188446372700, guid: a66cf6d1c7a7c1b42aedeeef3cb61952, type: 2}
      propertyPath: m_IsActive
      value: 0
      objectReference: {fileID: 0}
    m_RemovedComponents: []
  m_ParentPrefab: {fileID: 100100000, guid: a66cf6d1c7a7c1b42aedeeef3cb61952, type: 2}
  m_IsPrefabParent: 0
